1 10 20
100 200 125
201 210 89
900 1000 174
2530 3103 217
9144 1476 262
748 182 171
5439 7572 262
3218 4457 238
8729 8780 216
6517 2207 262
1235 4484 238
9324 7080 260
8122 3682 262
701 1258 182
7791 6277 257
468 8830 262
4514 2772 238
9504 1723 262
8279 1972 262
4731 488 238
2895 4078 238
9941 5393 262
540 676 145
6735 9292 260
1356 9301 262
2849 3382 217
2618 5181 238
949 3040 217
9436 4259 262
1713 6874 262
3498 9537 262
2498 288 209
2363 7505 262
708 482 171
9679 9361 198
3600 7383 262
6107 6341 262
9686 2048 262
9129 6873 257
2722 5489 238
2443 1223 183
2232 6095 238
3775 4643 215
8693 1465 262
1851 8781 262
4107 8021 262
3042 1283 217
9948 8137 260
3408 5446 238
2482 4917 238
5542 3984 215
6088 3057 238
3766 1056 238
2555 6847 262
6470 6736 244
23 1674 182
4804 5141 210
7681 2776 262
4062 4791 215
7138 1442 262
3356 2199 217
3834 8296 262
4144 184 238
867 6223 262
2920 211 217
2584 543 209
9681 7698 260
5489 20 238
6879 6034 262
1257 7653 262
4681 5040 210
6378 8548 257
2986 3153 186
1097 8824 262
279 70 128
6011 5474 236
9021 5713 262
1241 8713 262
1321 6395 262
9853 2280 262
4245 6346 262
267 7440 262
4459 8994 262
6735 9146 257
5377 3854 215
3808 4286 202
9458 9526 198
2837 917 209
6661 1274 262
6663 6835 182
9843 8072 260
6906 9118 257
3949 333 238
1279 4008 238
5469 1684 238
8365 1792 262
9441 4390 262
6470 7046 257
9884 5581 262
808 4343 238
7680 7725 177
3569 5952 238
8444 9440 260
1366 2167 180
7155 4287 262
1874 1755 175
771 2174 182
9167 1116 262
6267 3338 262
3486 9193 262
8485 9965 260
2285 8246 262
5961 8623 262
2740 5875 238
7220 2865 262
4904 1611 238
8739 284 262
2927 6758 262
419 66 144
1041 6785 262
1304 4248 238
6165 8194 262
9680 5469 262
2026 2306 183
2128 6102 238
1501 7989 262
8590 2327 262
489 5910 238
6880 1406 262
7463 1702 262
8413 8444 203
5728 9152 262
5422 7853 262
363 1705 182
805 4078 238
9219 5627 262
6425 8204 257
9872 9691 211
7314 1106 262
2025 756 182
9632 9250 260
6142 1249 238
8279 3734 262
4436 5533 210
1463 3438 217
5115 9143 262
3277 5117 238
4166 9027 262
8471 510 262
9363 2101 262
7688 5101 262
8098 3149 262
3121 1804 217
