..........................
----------------------------------------------------------------------
Ran 26 tests in 5.712s

OK
Name             Stmts   Miss Branch BrPart  Cover   Missing
------------------------------------------------------------
Collatz.py          47      0     20      0   100%
TestCollatz.py     104      0      0      0   100%
------------------------------------------------------------
TOTAL              151      0     20      0   100%
