..................
----------------------------------------------------------------------
Ran 18 tests in 0.399s

OK
Name             Stmts   Miss Branch BrPart  Cover   Missing
------------------------------------------------------------
Collatz.py          60      1     40      2    97%   109->108, 121->122, 122
TestCollatz.py      78      2      0      0    97%   81-82
------------------------------------------------------------
TOTAL              138      3     40      2    97%
