................
----------------------------------------------------------------------
Ran 16 tests in 20.390s

OK
Name             Stmts   Miss Branch BrPart  Cover   Missing
------------------------------------------------------------
Collatz.py          42      0     18      0   100%
TestCollatz.py      69      0      0      0   100%
------------------------------------------------------------
TOTAL              111      0     18      0   100%
