1 10 20
100 200 125
201 210 89
900 1000 174
803 836 135
497 537 124
228 233 128
898 985 174
110 189 125
45 127 119
343 415 134
368 393 121
647 709 171
585 604 119
882 922 148
209 220 115
746 760 140
679 687 127
46 79 116
564 632 132
879 965 174
422 463 129
320 395 144
777 779 122
155 176 125
534 606 137
798 851 135
113 175 125
138 155 117
14 22 21
272 291 118
771 839 153
40 98 119
302 382 144
33 57 113
571 650 145
629 728 171
281 285 105
482 532 142
580 639 132
342 407 126
875 900 148
336 345 126
561 630 132
427 496 142
91 169 122
148 213 125
880 912 148
3 47 112
477 530 142
462 534 142
804 887 179
53 104 119
129 215 125
1517 2318 183
4250 4294 202
9247 9452 260
4296 4796 215
5827 6466 262
2549 2924 217
2646 2663 147
7269 7856 239
6943 7147 257
8044 8639 234
2228 2913 209
2651 2848 173
1212 2109 180
7443 7784 208
9733 10055 242
462 758 171
4793 5269 210
3792 4377 202
875 1142 174
9284 10059 242
6759 7525 257
3952 4764 215
3726 4636 215
3400 3921 238
333 1004 179
6793 7470 257
2402 3016 217
6209 6823 244
5048 5816 236
8312 8527 234
15 252 128
2747 3208 217
4827 5295 210
6649 6858 182
8381 9303 260
7928 8210 252
8702 8921 216
9037 9448 260
7779 8343 252
7936 8786 252
4758 4874 197
3000 3214 199
1677 2643 209
2802 3722 238
4022 4736 215
8821 9214 247
9708 10093 242
1799 2207 175
9716 10706 255
6231 6927 244
303 613 144
413 557 142
570 859 171
260 587 144
915 1296 182
567 999 179
220 591 144
666 730 171
828 858 135
493 834 171
560 812 171
319 723 171
224 276 128
585 589 119
1 454 144
285 683 145
730 1228 182
572 687 145
330 562 142
327 395 144
959 1229 182
331 486 134
697 734 171
515 562 137
493 845 171
224 569 144
915 1384 182
108 155 122
980 1150 169
700 1007 179
168 475 144
895 1176 182
621 728 171
936 1164 182
86 150 122
141 515 144
480 847 171
285 584 144
371 782 171
807 1195 182
877 992 174
410 539 142
244 698 145
64 501 144
842 1035 179
767 1179 182
162 280 128
556 607 119
782 813 135
699 1141 179
719285 748152 424
302789 381397 441
437767 487929 444
635070 672146 442
296672 307600 371
758023 808034 468
713398 717709 380
108211 202184 383
127963 137327 344
166413 167453 334
392165 485805 449
816401 864261 525
873641 958718 507
272902 280988 389
400500 442436 449
236080 260518 368
455161 545809 470
333333 372396 441
499168 553338 470
381079 403871 436
420383 492338 444
160684 181766 365
881967 924887 476
663552 683444 442
323487 348012 441
25085 25126 158
4629 4663 184
49800 50458 265
38387 39134 275
3599 4147 238
4594 5041 210
25698 25891 233
86751 86960 227
19225 19962 274
53255 53308 216
12636 13603 276
3583 4482 238
7928 8907 252
72091 72911 263
64113 64490 299
45195 46067 239
15860 16644 266
