..............
----------------------------------------------------------------------
Ran 14 tests in 2.196s

OK
Name             Stmts   Miss Branch BrPart  Cover   Missing
------------------------------------------------------------
Collatz.py          37      0     14      0   100%
TestCollatz.py      63      0      0      0   100%
------------------------------------------------------------
TOTAL              100      0     14      0   100%
