.......................
----------------------------------------------------------------------
Ran 23 tests in 3.721s

OK
Name             Stmts   Miss Branch BrPart  Cover   Missing
------------------------------------------------------------
Collatz.py          34      0     20      0   100%
TestCollatz.py      90      0      0      0   100%
------------------------------------------------------------
TOTAL              124      0     20      0   100%
